# File produced by Open Asset Import Library (http://www.assimp.sf.net)
# (assimp v3.1.71981620)

newmtl Bodymat
kd 1 1 1
illum 1

newmtl Bodymat1
kd 1 1 1
illum 1

newmtl Topmat
kd 1 1 1
illum 1

newmtl Glovemat
kd 1 1 1
illum 1

newmtl Bottommat
kd 1 1 1
illum 1

newmtl Shoesmat
kd 1 1 1
illum 1

newmtl Hairmat
kd 1 1 1
illum 1

